{
  "project_info": {
    "project_number": "77502542817",
    "firebase_url": "https://cukrzyca-b6b95.firebaseio.com",
    "project_id": "cukrzyca-b6b95",
    "storage_bucket": "cukrzyca-b6b95.appspot.com"
  },
  "client": [
    {
      "client_info": {
        "mobilesdk_app_id": "1:77502542817:android:90b89225ce9994e9",
        "android_client_info": {
          "package_name": "com.cukrzyca"
        }
      },
      "oauth_client": [
        {
          "client_id": "77502542817-ube3upj6qrrlrnl54mg7m4c7n4vmn920.apps.googleusercontent.com",
          "client_type": 3
        }
      ],
      "api_key": [
        {
          "current_key": "AIzaSyCItKVDVANFiabXagfKqGBYpyeGUBqPgkA"
        }
      ],
      "services": {
        "analytics_service": {
          "status": 1
        },
        "appinvite_service": {
          "status": 1,
          "other_platform_oauth_client": []
        },
        "ads_service": {
          "status": 2
        }
      }
    }
  ],
  "configuration_version": "1"
}